%YAML 1.1
%TAG !u! tag:unity3d.com,2011:
--- !u!74 &7400000
AnimationClip:
  m_ObjectHideFlags: 0
  m_CorrespondingSourceObject: {fileID: 0}
  m_PrefabInstance: {fileID: 0}
  m_PrefabAsset: {fileID: 0}
  m_Name: FrangoRun
  serializedVersion: 6
  m_Legacy: 0
  m_Compressed: 0
  m_UseHighQualityCurve: 1
  m_RotationCurves: []
  m_CompressedRotationCurves: []
  m_EulerCurves: []
  m_PositionCurves:
  - curve:
      serializedVersion: 2
      m_Curve:
      - serializedVersion: 3
        time: 1.0833334
        value: {x: -4.77, y: 0.28, z: -90}
        inSlope: {x: 0, y: 0, z: 0}
        outSlope: {x: 0, y: 0, z: 0}
        tangentMode: 0
        weightedMode: 0
        inWeight: {x: 0.33333334, y: 0.33333334, z: 0.33333334}
        outWeight: {x: 0.33333334, y: 0.33333334, z: 0.33333334}
      m_PreInfinity: 2
      m_PostInfinity: 2
      m_RotationOrder: 4
    path: 
  m_ScaleCurves: []
  m_FloatCurves:
  - curve:
      serializedVersion: 2
      m_Curve:
      - serializedVersion: 3
        time: 0
        value: 0
        inSlope: Infinity
        outSlope: Infinity
        tangentMode: 103
        weightedMode: 0
        inWeight: 0
        outWeight: 0
      m_PreInfinity: 2
      m_PostInfinity: 2
      m_RotationOrder: 4
    attribute: m_FlipX
    path: 
    classID: 212
    script: {fileID: 0}
  m_PPtrCurves:
  - curve:
    - time: 0
      value: {fileID: 8599900626152481272, guid: 505531a920a60324aa02b4ed57eba7a3, type: 3}
    - time: 0.083333336
      value: {fileID: -2568293382445063353, guid: 505531a920a60324aa02b4ed57eba7a3, type: 3}
    - time: 0.16666667
      value: {fileID: -1005241021392157854, guid: 505531a920a60324aa02b4ed57eba7a3, type: 3}
    - time: 0.25
      value: {fileID: -6541630883775786074, guid: 505531a920a60324aa02b4ed57eba7a3, type: 3}
    - time: 0.33333334
      value: {fileID: 1057926888474058224, guid: 505531a920a60324aa02b4ed57eba7a3, type: 3}
    - time: 0.41666666
      value: {fileID: -4502877009813902047, guid: 505531a920a60324aa02b4ed57eba7a3, type: 3}
    - time: 0.5
      value: {fileID: -2245718612936611901, guid: 505531a920a60324aa02b4ed57eba7a3, type: 3}
    - time: 0.5833333
      value: {fileID: 6744654028139480773, guid: 505531a920a60324aa02b4ed57eba7a3, type: 3}
    - time: 0.6666667
      value: {fileID: 2132593737070203682, guid: 505531a920a60324aa02b4ed57eba7a3, type: 3}
    - time: 0.75
      value: {fileID: -8715660248446083153, guid: 505531a920a60324aa02b4ed57eba7a3, type: 3}
    - time: 0.8333333
      value: {fileID: -5292059831501525611, guid: 505531a920a60324aa02b4ed57eba7a3, type: 3}
    - time: 0.9166667
      value: {fileID: 4270905622243145952, guid: 505531a920a60324aa02b4ed57eba7a3, type: 3}
    - time: 1
      value: {fileID: 3094134864017252659, guid: 505531a920a60324aa02b4ed57eba7a3, type: 3}
    - time: 1.0833334
      value: {fileID: -897706079130130723, guid: 505531a920a60324aa02b4ed57eba7a3, type: 3}
    attribute: m_Sprite
    path: 
    classID: 212
    script: {fileID: 0}
  m_SampleRate: 12
  m_WrapMode: 0
  m_Bounds:
    m_Center: {x: 0, y: 0, z: 0}
    m_Extent: {x: 0, y: 0, z: 0}
  m_ClipBindingConstant:
    genericBindings:
    - serializedVersion: 2
      path: 0
      attribute: 555744692
      script: {fileID: 0}
      typeID: 212
      customType: 0
      isPPtrCurve: 0
    - serializedVersion: 2
      path: 0
      attribute: 0
      script: {fileID: 0}
      typeID: 212
      customType: 23
      isPPtrCurve: 1
    - serializedVersion: 2
      path: 0
      attribute: 1
      script: {fileID: 0}
      typeID: 4
      customType: 0
      isPPtrCurve: 0
    pptrCurveMapping:
    - {fileID: 8599900626152481272, guid: 505531a920a60324aa02b4ed57eba7a3, type: 3}
    - {fileID: -2568293382445063353, guid: 505531a920a60324aa02b4ed57eba7a3, type: 3}
    - {fileID: -1005241021392157854, guid: 505531a920a60324aa02b4ed57eba7a3, type: 3}
    - {fileID: -6541630883775786074, guid: 505531a920a60324aa02b4ed57eba7a3, type: 3}
    - {fileID: 1057926888474058224, guid: 505531a920a60324aa02b4ed57eba7a3, type: 3}
    - {fileID: -4502877009813902047, guid: 505531a920a60324aa02b4ed57eba7a3, type: 3}
    - {fileID: -2245718612936611901, guid: 505531a920a60324aa02b4ed57eba7a3, type: 3}
    - {fileID: 6744654028139480773, guid: 505531a920a60324aa02b4ed57eba7a3, type: 3}
    - {fileID: 2132593737070203682, guid: 505531a920a60324aa02b4ed57eba7a3, type: 3}
    - {fileID: -8715660248446083153, guid: 505531a920a60324aa02b4ed57eba7a3, type: 3}
    - {fileID: -5292059831501525611, guid: 505531a920a60324aa02b4ed57eba7a3, type: 3}
    - {fileID: 4270905622243145952, guid: 505531a920a60324aa02b4ed57eba7a3, type: 3}
    - {fileID: 3094134864017252659, guid: 505531a920a60324aa02b4ed57eba7a3, type: 3}
    - {fileID: -897706079130130723, guid: 505531a920a60324aa02b4ed57eba7a3, type: 3}
  m_AnimationClipSettings:
    serializedVersion: 2
    m_AdditiveReferencePoseClip: {fileID: 0}
    m_AdditiveReferencePoseTime: 0
    m_StartTime: 0
    m_StopTime: 1.1666667
    m_OrientationOffsetY: 0
    m_Level: 0
    m_CycleOffset: 0
    m_HasAdditiveReferencePose: 0
    m_LoopTime: 1
    m_LoopBlend: 0
    m_LoopBlendOrientation: 0
    m_LoopBlendPositionY: 0
    m_LoopBlendPositionXZ: 0
    m_KeepOriginalOrientation: 0
    m_KeepOriginalPositionY: 1
    m_KeepOriginalPositionXZ: 0
    m_HeightFromFeet: 0
    m_Mirror: 0
  m_EditorCurves:
  - curve:
      serializedVersion: 2
      m_Curve:
      - serializedVersion: 3
        time: 1.0833334
        value: -4.77
        inSlope: 0
        outSlope: 0
        tangentMode: 136
        weightedMode: 0
        inWeight: 0.33333334
        outWeight: 0.33333334
      m_PreInfinity: 2
      m_PostInfinity: 2
      m_RotationOrder: 4
    attribute: m_LocalPosition.x
    path: 
    classID: 4
    script: {fileID: 0}
  - curve:
      serializedVersion: 2
      m_Curve:
      - serializedVersion: 3
        time: 1.0833334
        value: 0.28
        inSlope: 0
        outSlope: 0
        tangentMode: 136
        weightedMode: 0
        inWeight: 0.33333334
        outWeight: 0.33333334
      m_PreInfinity: 2
      m_PostInfinity: 2
      m_RotationOrder: 4
    attribute: m_LocalPosition.y
    path: 
    classID: 4
    script: {fileID: 0}
  - curve:
      serializedVersion: 2
      m_Curve:
      - serializedVersion: 3
        time: 1.0833334
        value: -90
        inSlope: 0
        outSlope: 0
        tangentMode: 136
        weightedMode: 0
        inWeight: 0.33333334
        outWeight: 0.33333334
      m_PreInfinity: 2
      m_PostInfinity: 2
      m_RotationOrder: 4
    attribute: m_LocalPosition.z
    path: 
    classID: 4
    script: {fileID: 0}
  - curve:
      serializedVersion: 2
      m_Curve:
      - serializedVersion: 3
        time: 0
        value: 0
        inSlope: Infinity
        outSlope: Infinity
        tangentMode: 103
        weightedMode: 0
        inWeight: 0
        outWeight: 0
      m_PreInfinity: 2
      m_PostInfinity: 2
      m_RotationOrder: 4
    attribute: m_FlipX
    path: 
    classID: 212
    script: {fileID: 0}
  m_EulerEditorCurves: []
  m_HasGenericRootTransform: 1
  m_HasMotionFloatCurves: 0
  m_Events: []
